Pollutants,POLLUTANT LIST IN THIS CELL AND CELLS TO THE RIGHT,,,
Start Year,1978,,,
End Year,2014,,,
Inter-annually varying transport,N,,,
Estimate OH?,N,,,
Estimate transport?,N,,,
Transport growth constraint?,N,,,
OH growth constraint?,N,,,
Transport parameter file,,,,
OH file,,,,
Pollutant file name suffix,growth,,,
Function: stratospheric lifetime,ln(1/x),,,
Function: OH,ln(x),,,
Function: T^(-1),ln(x),,,
Transport parameter error (%),36,,,
OH error (%),100,100,100,100
Measurement folder,,,,
Include archive?,y,,,
